<svg width="48" height="48" viewBox="0 0 48 48" fill="none" xmlns="http://www.w3.org/2000/svg">
<path fill-rule="evenodd" clip-rule="evenodd" d="M2.92893 30.9289C4.8043 29.0536 7.34783 28 10 28H26C28.6522 28 31.1957 29.0536 33.0711 30.9289C34.9464 32.8043 36 35.3478 36 38V42C36 43.1046 35.1046 44 34 44C32.8954 44 32 43.1046 32 42V38C32 36.4087 31.3679 34.8826 30.2426 33.7574C29.1174 32.6321 27.5913 32 26 32H10C8.4087 32 6.88258 32.6321 5.75736 33.7574C4.63214 34.8826 4 36.4087 4 38V42C4 43.1046 3.10457 44 2 44C0.89543 44 0 43.1046 0 42V38C0 35.3478 1.05357 32.8043 2.92893 30.9289Z" fill="#7070F6"/>
<path fill-rule="evenodd" clip-rule="evenodd" d="M18 8C14.6863 8 12 10.6863 12 14C12 17.3137 14.6863 20 18 20C21.3137 20 24 17.3137 24 14C24 10.6863 21.3137 8 18 8ZM8 14C8 8.47715 12.4772 4 18 4C23.5228 4 28 8.47715 28 14C28 19.5228 23.5228 24 18 24C12.4772 24 8 19.5228 8 14Z" fill="#7070F6"/>
<path fill-rule="evenodd" clip-rule="evenodd" d="M38.0635 29.76C38.3396 28.6905 39.4305 28.0474 40.5 28.3235C42.6453 28.8774 44.5459 30.1282 45.9034 31.8793C47.2609 33.6304 47.9983 35.7828 48 37.9985L48 42C48 43.1046 47.1046 44 46 44C44.8954 44 44 43.1046 44 42L44 38.0015C44 38.0013 44 38.0017 44 38.0015C43.9989 36.6723 43.5564 35.3805 42.742 34.33C41.9276 33.2793 40.7872 32.5288 39.5 32.1965C38.4305 31.9204 37.7874 30.8295 38.0635 29.76Z" fill="#7070F6"/>
<path fill-rule="evenodd" clip-rule="evenodd" d="M30.0625 5.76392C30.3365 4.69387 31.426 4.04853 32.4961 4.3225C34.6471 4.87326 36.5537 6.12426 37.9152 7.87828C39.2767 9.6323 40.0157 11.7896 40.0157 14.01C40.0157 16.2304 39.2767 18.3877 37.9152 20.1417C36.5537 21.8957 34.6471 23.1467 32.4961 23.6975C31.426 23.9715 30.3365 23.3261 30.0625 22.2561C29.7885 21.186 30.4339 20.0965 31.5039 19.8225C32.7945 19.4921 33.9385 18.7415 34.7554 17.689C35.5723 16.6366 36.0157 15.3423 36.0157 14.01C36.0157 12.6777 35.5723 11.3834 34.7554 10.331C33.9385 9.27855 32.7945 8.52795 31.5039 8.1975C30.4339 7.92353 29.7885 6.83398 30.0625 5.76392Z" fill="#7070F6"/>
</svg>
