<svg width="48" height="48" viewBox="0 0 48 48" fill="none" xmlns="http://www.w3.org/2000/svg">
<path fill-rule="evenodd" clip-rule="evenodd" d="M13.2675 7.4209C13.8193 6.46403 15.0423 6.13566 15.9991 6.68745L33.9991 17.0674C34.956 17.6192 35.2844 18.8423 34.7326 19.7991C34.1808 20.756 32.9578 21.0844 32.0009 20.5326L14.0009 10.1526C13.044 9.60078 12.7157 8.37777 13.2675 7.4209Z" fill="#7070F6"/>
<path fill-rule="evenodd" clip-rule="evenodd" d="M21.0043 2.80546C21.9154 2.28046 22.9484 2.00409 24 2.00409C25.0516 2.00409 26.0847 2.28048 26.9958 2.80553C26.9972 2.80633 26.9986 2.80713 27 2.80794L41 10.8079C41.9112 11.334 42.6681 12.0905 43.1946 13.0014C43.7212 13.9124 43.9989 14.9458 44 15.9979V32.002C43.9989 33.0542 43.7212 34.0876 43.1946 34.9986C42.6681 35.9095 41.9112 36.666 41 37.192L40.9923 37.1965L27 45.192C26.9988 45.1927 26.9976 45.1934 26.9964 45.1941C26.0852 45.7194 25.0518 45.9959 24 45.9959C22.9482 45.9959 21.9149 45.7194 21.0037 45.1942C21.0025 45.1935 21.0012 45.1928 21 45.192L7.00772 37.1965L7 37.192C6.08879 36.666 5.33194 35.9095 4.80538 34.9986C4.27883 34.0876 4.00108 33.0542 4 32.002V15.9979C4.00108 14.9458 4.27883 13.9124 4.80538 13.0014C5.33194 12.0905 6.08879 11.334 7 10.8079L7.00771 10.8035L21.0043 2.80546ZM24 6.00409C23.6489 6.00409 23.304 6.0965 23 6.27204L22.9923 6.27649L9 14.272C8.99895 14.2726 8.9979 14.2733 8.99685 14.2739C8.69451 14.4491 8.44337 14.7006 8.26846 15.0032C8.09309 15.3066 8.00051 15.6507 8 16.0012V31.9988C8.00051 32.3492 8.09308 32.6934 8.26846 32.9968C8.44337 33.2994 8.69452 33.5508 8.99685 33.7261C8.9979 33.7267 8.99895 33.7273 9 33.7279L23 41.7279C23.304 41.9035 23.6489 41.9959 24 41.9959C24.3511 41.9959 24.696 41.9035 25 41.7279L25.0077 41.7235L39 33.7279C39.0011 33.7273 39.0021 33.7267 39.0032 33.7261C39.3055 33.5508 39.5566 33.2994 39.7315 32.9968C39.9071 32.6931 39.9996 32.3487 40 31.9979V16.002C39.9996 15.6513 39.9071 15.3068 39.7315 15.0032C39.5566 14.7006 39.3055 14.4492 39.0032 14.2739C39.0021 14.2733 39.0011 14.2726 39 14.272L25 6.27206C24.6959 6.09652 24.3511 6.00409 24 6.00409Z" fill="#7070F6"/>
<path fill-rule="evenodd" clip-rule="evenodd" d="M4.80879 12.9186C5.36187 11.9624 6.58533 11.6357 7.54145 12.1888L24 21.7095L40.4586 12.1888C41.4147 11.6357 42.6381 11.9624 43.1912 12.9186C43.7443 13.8747 43.4176 15.0981 42.4614 15.6512L25.0015 25.7512C24.3819 26.1096 23.6181 26.1096 22.9986 25.7512L5.53856 15.6512C4.58243 15.0981 4.25571 13.8747 4.80879 12.9186Z" fill="#7070F6"/>
<path fill-rule="evenodd" clip-rule="evenodd" d="M24 22C25.1046 22 26 22.8954 26 24V44.16C26 45.2646 25.1046 46.16 24 46.16C22.8954 46.16 22 45.2646 22 44.16V24C22 22.8954 22.8954 22 24 22Z" fill="#7070F6"/>
</svg>
